{
  "page": 1,
  "total_results": 122,
  "total_pages": 7,
  "results": [
    {
      "popularity": 36.904,
      "vote_count": 4985,
      "video": false,
      "poster_path": "/lH3dsbxA4wLalWKNYpVldX8zfPP.jpg",
      "id": 268,
      "adult": false,
      "backdrop_path": "/2va32apQP97gvUxaMnL5wYt4CRB.jpg",
      "original_language": "en",
      "original_title": "Batman",
      "genre_ids": [
        28,
        14
      ],
      "title": "Batman",
      "vote_average": 7.2,
      "overview": "Having witnessed his parents' brutal murder as a child, millionaire philanthropist Bruce Wayne fights crime in Gotham City disguised as Batman, a costumed hero who strikes fear into the hearts of villains. But when a deformed madman who calls himself \"The Joker\" seizes control of Gotham's criminal underworld, Batman must face his most ruthless nemesis ever while protecting both his identity and his love interest, reporter Vicki Vale.",
      "release_date": "1989-06-23"
    },
    {
      "popularity": 49.8,
      "vote_count": 14904,
      "video": false,
      "poster_path": "/1P3ZyEq02wcTMd3iE4ebtLvncvH.jpg",
      "id": 272,
      "adult": false,
      "backdrop_path": "/xqzilMDWLohLpAG5qkd7eVnbsjx.jpg",
      "original_language": "en",
      "original_title": "Batman Begins",
      "genre_ids": [
        28,
        80,
        18
      ],
      "title": "Batman Begins",
      "vote_average": 7.7,
      "overview": "Driven by tragedy, billionaire Bruce Wayne dedicates his life to uncovering and defeating the corruption that plagues his home, Gotham City.  Unable to work within the system, he instead creates a new identity, a symbol of fear for the criminal underworld - The Batman.",
      "release_date": "2005-06-10"
    },
    {
      "popularity": 48.899,
      "vote_count": 390,
      "video": false,
      "poster_path": "/eiVQORVyVuNNZHPAELuWtlXoQsD.jpg",
      "id": 537056,
      "adult": false,
      "backdrop_path": "/eevJuYAitUe6VwFN29aFwzeyeTr.jpg",
      "original_language": "en",
      "original_title": "Batman: Hush",
      "genre_ids": [
        28,
        16,
        80,
        9648
      ],
      "title": "Batman: Hush",
      "vote_average": 7.3,
      "overview": "A mysterious new villain known only as Hush uses a gallery of villains to destroy Batman's crime-fighting career as well as Bruce Wayne's personal life, which has been further complicated by a  relationship with Selina Kyle/Catwoman.",
      "release_date": "2019-07-19"
    },
    {
      "popularity": 28.824,
      "vote_count": 3392,
      "video": false,
      "poster_path": "/bsg0mrxUKyJoL4oSGP5mlhEsqp.jpg",
      "id": 415,
      "adult": false,
      "backdrop_path": "/tgPFZxhDuxWd4VXYaz8eAUznGTF.jpg",
      "original_language": "en",
      "original_title": "Batman & Robin",
      "genre_ids": [
        28,
        14,
        878
      ],
      "title": "Batman & Robin",
      "vote_average": 4.3,
      "overview": "Along with crime-fighting partner Robin and new recruit Batgirl, Batman battles the dual threat of frosty genius Mr. Freeze and homicidal horticulturalist Poison Ivy. Freeze plans to put Gotham City on ice, while Ivy tries to drive a wedge between the dynamic duo.",
      "release_date": "1997-06-20"
    },
    {
      "popularity": 36.289,
      "vote_count": 0,
      "video": false,
      "poster_path": "/yYMG2uT87auGztI9aKVzBB2pHvK.jpg",
      "id": 414906,
      "adult": false,
      "backdrop_path": "/kz38VE6kvYry2hOY6S9AeBiZuKl.jpg",
      "original_language": "en",
      "original_title": "The Batman",
      "genre_ids": [
        28,
        80,
        18
      ],
      "title": "The Batman",
      "vote_average": 0,
      "overview": "In his second year of crimefighting, billionaire Bruce Wayne, also known as The Batman, takes on a mysterious foe of unknown intentions.",
      "release_date": "2021-09-29"
    },
    {
      "popularity": 31.456,
      "id": 364,
      "video": false,
      "vote_count": 4149,
      "vote_average": 6.8,
      "title": "Batman Returns",
      "release_date": "1992-06-19",
      "original_language": "en",
      "original_title": "Batman Returns",
      "genre_ids": [
        28,
        14
      ],
      "backdrop_path": "/moYfd709S8xnb8Od2yeG5VBt9Bp.jpg",
      "adult": false,
      "overview": "Having defeated the Joker, Batman now faces the Penguin—a warped and deformed individual who is intent on being accepted into Gotham society, with the help of Max Schreck, a crooked businessman, whom he coerces into helping him run for the position of Mayor of Gotham, while they both attempt to frame Batman in a different light. Batman must attempt to clear his name, all while also deciding just what must be done with the mysterious Catwoman slinking about.",
      "poster_path": "/jKBjeXM7iBBV9UkUcOXx3m7FSHY.jpg"
    },
    {
      "popularity": 30.524,
      "vote_count": 3494,
      "video": false,
      "poster_path": "/k6EQ2OewzjF8TcPgok9wxpPAgXW.jpg",
      "id": 414,
      "adult": false,
      "backdrop_path": "/snlu32RmjldF9b068UURJg8sQtn.jpg",
      "original_language": "en",
      "original_title": "Batman Forever",
      "genre_ids": [
        28,
        80,
        14
      ],
      "title": "Batman Forever",
      "vote_average": 5.4,
      "overview": "The Dark Knight of Gotham City confronts a dastardly duo: Two-Face and the Riddler. Formerly District Attorney Harvey Dent, Two-Face believes Batman caused the courtroom accident which left him disfigured on one side. And Edward Nygma, computer-genius and former employee of millionaire Bruce Wayne, is out to get the philanthropist; as The Riddler. Former circus acrobat Dick Grayson, his family killed by Two-Face, becomes Wayne's ward and Batman's new partner Robin.",
      "release_date": "1995-06-16"
    },
    {
      "popularity": 26.028,
      "vote_count": 95,
      "video": false,
      "poster_path": "/yTbj8Kcp4WFwMRdEejnn55KIsfH.jpg",
      "id": 464882,
      "adult": false,
      "backdrop_path": "/olwINcffzDRt8MMCamlptD3Hbjj.jpg",
      "original_language": "en",
      "original_title": "Batman vs. Two-Face",
      "genre_ids": [
        28,
        16,
        35
      ],
      "title": "Batman vs. Two-Face",
      "vote_average": 6.2,
      "overview": "Former Gotham City District Attorney Harvey Dent, one side of his face scarred by acid, goes on a crime spree based on the number '2'. All of his actions are decided by the flip of a defaced, two-headed silver dollar.",
      "release_date": "2017-11-14"
    },
    {
      "popularity": 15.13,
      "vote_count": 486,
      "video": false,
      "poster_path": "/iBaHizz1sfMs4N03aHsGe7I2G6S.jpg",
      "id": 2661,
      "adult": false,
      "backdrop_path": "/uCvZkYVtroiQJ6RLqUmbIhcgwCp.jpg",
      "original_language": "en",
      "original_title": "Batman",
      "genre_ids": [
        12,
        35,
        80,
        878,
        10751
      ],
      "title": "Batman",
      "vote_average": 6.2,
      "overview": "The Dynamic Duo faces four super-villains who plan to hold the world for ransom with the help of a secret invention that instantly dehydrates people.",
      "release_date": "1966-07-30"
    },
    {
      "popularity": 25.846,
      "vote_count": 36,
      "video": true,
      "poster_path": "/uI9enNoQsqseLXQK60YbscDr5L6.jpg",
      "id": 287757,
      "adult": false,
      "backdrop_path": "/3YHWdGyiuLVE2x4s3v3C35ZhFyl.jpg",
      "original_language": "en",
      "original_title": "Scooby-Doo Meets Batman",
      "genre_ids": [
        16,
        35,
        10751
      ],
      "title": "Scooby-Doo Meets Batman",
      "vote_average": 6.7,
      "overview": "Scooby-Doo Meets Batman is a video compilation from Warner Bros. Home Entertainment. It consists of two episodes from Hanna-Barbera's The New Scooby-Doo Movies, \"The Dynamic Scooby Doo Affair\" and \"The Caped Crusader Caper\", where Scooby-Doo and the gang team up with Batman and Robin to capture Joker and the Penguin.",
      "release_date": "1972-06-14"
    },
    {
      "popularity": 26.548,
      "vote_count": 385,
      "video": false,
      "poster_path": "/uVdxoD9kn28qC8VQiVA6Uif1QHl.jpg",
      "id": 408648,
      "adult": false,
      "backdrop_path": "/2JVnUtyUKbQm165cXUF9r5iVPDo.jpg",
      "original_language": "en",
      "original_title": "Batman and Harley Quinn",
      "genre_ids": [
        28,
        12,
        16,
        878
      ],
      "title": "Batman and Harley Quinn",
      "vote_average": 6.1,
      "overview": "Batman and Nightwing are forced to team with the Joker's sometimes-girlfriend Harley Quinn to stop a global threat brought about by Poison Ivy and Jason Woodrue, the Floronic Man.",
      "release_date": "2017-08-14"
    },
    {
      "popularity": 21.787,
      "vote_count": 541,
      "video": false,
      "poster_path": "/aGp9XDXmVM5lCKHWtgBC15S7XLr.jpg",
      "id": 321528,
      "adult": false,
      "backdrop_path": "/g2XhZJhFiHcczWcXEEldItG53gd.jpg",
      "original_language": "en",
      "original_title": "Batman vs. Robin",
      "genre_ids": [
        28,
        12,
        16
      ],
      "title": "Batman vs. Robin",
      "vote_average": 7.2,
      "overview": "Damian Wayne is having a hard time coping with his father's \"no killing\" rule. Meanwhile, Gotham is going through hell with threats such as the insane Dollmaker, and the secretive Court of Owls.",
      "release_date": "2015-04-14"
    },
    {
      "popularity": 62.25,
      "vote_count": 13820,
      "video": false,
      "poster_path": "/5UsK3grJvtQrtzEgqNlDljJW96w.jpg",
      "id": 209112,
      "adult": false,
      "backdrop_path": "/doiUtOHzcxXFl0GVQ2n8Ay6Pirx.jpg",
      "original_language": "en",
      "original_title": "Batman v Superman: Dawn of Justice",
      "genre_ids": [
        28,
        12,
        14
      ],
      "title": "Batman v Superman: Dawn of Justice",
      "vote_average": 5.9,
      "overview": "Fearing the actions of a god-like Super Hero left unchecked, Gotham City’s own formidable, forceful vigilante takes on Metropolis’s most revered, modern-day savior, while the world wrestles with what sort of hero it really needs. And with Batman and Superman at war with one another, a new threat quickly arises, putting mankind in greater danger than it’s ever known before.",
      "release_date": "2016-03-23"
    },
    {
      "popularity": 23.252,
      "vote_count": 477,
      "video": false,
      "poster_path": "/r4lVThUiXLRiVrROt6RZT49BdjN.jpg",
      "id": 366924,
      "adult": false,
      "backdrop_path": "/cjgQ0RUdAhzykPZycigoQlmaKlx.jpg",
      "original_language": "en",
      "original_title": "Batman: Bad Blood",
      "genre_ids": [
        28,
        16,
        878
      ],
      "title": "Batman: Bad Blood",
      "vote_average": 7.1,
      "overview": "Bruce Wayne is missing. Alfred covers for him while Nightwing and Robin patrol Gotham City in his stead and a new player, Batwoman, investigates Batman's disappearance.",
      "release_date": "2016-03-22"
    },
    {
      "popularity": 28.179,
      "id": 382322,
      "video": false,
      "vote_count": 1178,
      "vote_average": 6.6,
      "title": "Batman: The Killing Joke",
      "release_date": "2016-07-24",
      "original_language": "en",
      "original_title": "Batman: The Killing Joke",
      "genre_ids": [
        28,
        16,
        80,
        18
      ],
      "backdrop_path": "/wNyhtxSazhYVSG1So8zgGTqVFVo.jpg",
      "adult": false,
      "overview": "As Batman hunts for the escaped Joker, the Clown Prince of Crime attacks the Gordon family to prove a diabolical point mirroring his own fall into madness.",
      "poster_path": "/nxncAAL1FUKtQWs4uhs5jf1MVut.jpg"
    },
    {
      "popularity": 24.758,
      "vote_count": 388,
      "video": false,
      "poster_path": "/zYTm9Zjrf4uLL1mT4UJg4j2Mugu.jpg",
      "id": 45162,
      "adult": false,
      "backdrop_path": "/74H4XXU0q22TSrkPmlqkcWoX5ZZ.jpg",
      "original_language": "en",
      "original_title": "Superman/Batman: Apocalypse",
      "genre_ids": [
        28,
        12,
        16,
        878,
        10751
      ],
      "title": "Superman/Batman: Apocalypse",
      "vote_average": 7.1,
      "overview": "Batman discovers a mysterious teen-aged girl with superhuman powers and a connection to Superman. When the girl comes to the attention of Darkseid, the evil overlord of Apokolips, events take a decidedly dangerous turn.",
      "release_date": "2010-09-28"
    },
    {
      "popularity": 18.271,
      "id": 251519,
      "video": false,
      "vote_count": 629,
      "vote_average": 7,
      "title": "Son of Batman",
      "release_date": "2014-05-13",
      "original_language": "en",
      "original_title": "Son of Batman",
      "genre_ids": [
        16,
        28,
        12
      ],
      "backdrop_path": "/rSjFHjE4cCO1eCQ3VN7VRu6ZYqh.jpg",
      "adult": false,
      "overview": "Batman learns that he has a violent, unruly pre-teen son with Talia al Ghul named Damian Wayne who is secretly being raised by Ra's al Ghul and the League of Assassins. When Ra's al Ghul apparently dies after a battle with Deathstroke, Batman must work to stop his long-lost son from taking revenge and guiding him to a righteous path, in addition to the chance for the pair to truly acknowledging each other as family.",
      "poster_path": "/iOeZoII7dEQ16DMkXXHnBMTgiVI.jpg"
    },
    {
      "popularity": 27.926,
      "vote_count": 413,
      "video": false,
      "poster_path": "/7souLi5zqQCnpZVghaXv0Wowi0y.jpg",
      "id": 471474,
      "adult": false,
      "backdrop_path": "/9ojJB7vZR2uDqXdxOzYaADthEBT.jpg",
      "original_language": "en",
      "original_title": "Batman: Gotham by Gaslight",
      "genre_ids": [
        28,
        16,
        878,
        53
      ],
      "title": "Batman: Gotham by Gaslight",
      "vote_average": 6.6,
      "overview": "In an alternative Victorian Age Gotham City, Batman begins his war on crime while he investigates a new series of murders by Jack the Ripper.",
      "release_date": "2018-01-12"
    },
    {
      "popularity": 25.396,
      "vote_count": 3488,
      "video": false,
      "poster_path": "/snGwr2gag4Fcgx2OGmH9otl6ofW.jpg",
      "id": 324849,
      "adult": false,
      "backdrop_path": "/jqnbac3oind5VOcAN0mTXyapOGh.jpg",
      "original_language": "en",
      "original_title": "The Lego Batman Movie",
      "genre_ids": [
        28,
        16,
        35,
        14,
        10751
      ],
      "title": "The Lego Batman Movie",
      "vote_average": 7.2,
      "overview": "In the irreverent spirit of fun that made \"The Lego Movie\" a worldwide phenomenon, the self-described leading man of that ensemble—Lego Batman—stars in his own big-screen adventure. But there are big changes brewing in Gotham, and if he wants to save the city from The Joker’s hostile takeover, Batman may have to drop the lone vigilante thing, try to work with others and maybe, just maybe, learn to lighten up.",
      "release_date": "2017-02-08"
    },
    {
      "popularity": 25.001,
      "vote_count": 701,
      "video": false,
      "poster_path": "/mmQZekxr9gJ7c0Grkx6xgKvrpDy.jpg",
      "id": 242643,
      "adult": false,
      "backdrop_path": "/bAM1hVZEQRo1ZujryQ47bOtxEe8.jpg",
      "original_language": "en",
      "original_title": "Batman: Assault on Arkham",
      "genre_ids": [
        28,
        16,
        80,
        53
      ],
      "title": "Batman: Assault on Arkham",
      "vote_average": 7.3,
      "overview": "Based on the hit video game series, Batman must find a bomb planted by the Joker while dealing with a mysterious team of villains called the Suicide Squad.",
      "release_date": "2014-08-12"
    }
  ]
}